%YAML 1.1
%TAG !u! tag:unity3d.com,2011:
--- !u!114 &11400000
MonoBehaviour:
  m_ObjectHideFlags: 0
  m_CorrespondingSourceObject: {fileID: 0}
  m_PrefabInstance: {fileID: 0}
  m_PrefabAsset: {fileID: 0}
  m_GameObject: {fileID: 0}
  m_Enabled: 1
  m_EditorHideFlags: 0
  m_Script: {fileID: 11500000, guid: 05a9891fc0015954dad1e634a0230940, type: 3}
  m_Name: Food
  m_EditorClassIdentifier: 
  name: Food
  type: Consumable
  subtype: Food
  weight: 0.5
  durability: 1
  level: 2
  icon: {fileID: 21300000, guid: fd0802e5032a1214982b726d73e15dbe, type: 3}
  Equiped: 1
  typeOfItem: 2
  conteinerSlot: 5
  healthGain: 30
  cst: 1
