%YAML 1.1
%TAG !u! tag:unity3d.com,2011:
--- !u!114 &11400000
MonoBehaviour:
  m_ObjectHideFlags: 0
  m_CorrespondingSourceObject: {fileID: 0}
  m_PrefabInstance: {fileID: 0}
  m_PrefabAsset: {fileID: 0}
  m_GameObject: {fileID: 0}
  m_Enabled: 1
  m_EditorHideFlags: 0
  m_Script: {fileID: 11500000, guid: 05a9891fc0015954dad1e634a0230940, type: 3}
  m_Name: Potion
  m_EditorClassIdentifier: 
  name: Potion
  type: Consumable
  subtype: Potion
  weight: 1
  durability: 10
  level: 3
  icon: {fileID: 21300000, guid: bdf2e9bda42988e4ead496fbd0290f67, type: 3}
  Equiped: 0
  typeOfItem: 2
  conteinerSlot: 5
  healthGain: 50
  cst: 0
