%YAML 1.1
%TAG !u! tag:unity3d.com,2011:
--- !u!114 &11400000
MonoBehaviour:
  m_ObjectHideFlags: 0
  m_CorrespondingSourceObject: {fileID: 0}
  m_PrefabInstance: {fileID: 0}
  m_PrefabAsset: {fileID: 0}
  m_GameObject: {fileID: 0}
  m_Enabled: 1
  m_EditorHideFlags: 0
  m_Script: {fileID: 11500000, guid: 5f64e78f17d75e14c84fb04e49dc6c6e, type: 3}
  m_Name: Chest
  m_EditorClassIdentifier: 
  name: Chestplate
  type: Equipment
  subtype: Chestplate
  weight: 20
  durability: 20
  level: 3
  icon: {fileID: 21300000, guid: 23c087ac1f5922548b10a835300bbd35, type: 3}
  Equiped: 0
  typeOfItem: 0
  conteinerSlot: 2
  armorModifier: 5
