%YAML 1.1
%TAG !u! tag:unity3d.com,2011:
--- !u!114 &11400000
MonoBehaviour:
  m_ObjectHideFlags: 0
  m_CorrespondingSourceObject: {fileID: 0}
  m_PrefabInstance: {fileID: 0}
  m_PrefabAsset: {fileID: 0}
  m_GameObject: {fileID: 0}
  m_Enabled: 1
  m_EditorHideFlags: 0
  m_Script: {fileID: 11500000, guid: 5f64e78f17d75e14c84fb04e49dc6c6e, type: 3}
  m_Name: Helmet
  m_EditorClassIdentifier: 
  name: Helmet
  type: Equipment
  subtype: Helmet
  weight: 10
  durability: 15
  level: 3
  icon: {fileID: 21300000, guid: e50c242f5544ea242bc440230f2afdc8, type: 3}
  Equiped: 1
  typeOfItem: 0
  conteinerSlot: 1
  armorModifier: 3.5
